[{
        "text": "(France TV Info): \"Nous ne reviendrons pas au #Front national\", lance #Marine Le Pen lors du congrès du parti : Quelques jours après une défaite aux régionales qui a généré des questionnements, la cheffe du parti a pris la parole.. https://t.co/IOgEnO4m1q https://t.co/8w3g4zzJvL"
    },
    {
        "text": "RT @titrespresse: (https://t.co/p55rDGyZVh): #Marine Le #Pen est-elle périmée ? : EDITO - Malgré sa défaite aux régionales, la patronne du…"
    },
    {
        "text": "(https://t.co/p55rDGyZVh): #Marine Le #Pen est-elle périmée ? : EDITO - Malgré sa défaite aux régionales, la patronne du RN n'a pas l'intention de changer de stratégie électorale. Pour gagner en 2022, elle doit conquérir une partie de.. https://t.co/gnkTifGvRF https://t.co/fOkqDwuCCg"
    },
    {
        "text": "(La Provence): \"#Combative\", #Marine Le Pen bat le rappel pour la présidentielle : Perpignan - Marine Le Pen, réélue sans surprise dimanche à la tête du Rassemblement national, bat le rappel de ses militants réunis en congrès à.. https://t.co/oa0FnDR3GO https://t.co/1Z1EZLTLp9"
    },
    {
        "text": "RT @Sonia_Lauvard: 🔵 Assemblée Générale Ordinaire du #RN\n✔️ Rapport moral de la Présidente, Marine Le Pen #MLP\n👉S’unir pour la #France, ave…"
    },
    {
        "text": "(La Nouvelle République): Au congrès du #RN, #Marine Le Pen bat le rappel pour la présidentielle : Marine Le Pen bat dimanche le rappel de ses militants réunis en congrès à Perpignan pour la présidentielle, après une défaite aux régionales qui a.. https://t.co/I2JqtQe17d"
    },
    {
        "text": "(L'express): Au congrès du #RN, #Marine Le Pen bat le rappel pour la présidentielle : Perpignan - Marine Le Pen bat dimanche le rappel de ses militants réunis en congrès à Perpignan pour la présidentielle, après une défaite aux.. https://t.co/Ho4FHpmv13 https://t.co/F5KZqnU94J"
    },
    {
        "text": "(France TV Info): #Rassemblement national : #Marine Le Pen, l'ombre du doute au congrès de Perpignan : 50 ans de vie politique et seulement deux présidents. La vie est-elle un long fleuve tranquille pour le Rassemblement national.. https://t.co/8eayYEMFF1 https://t.co/5aePuTiWKL"
    },
    {
        "text": "(LCI): #Marine Le Pen fragilisée ? \"C'est la seule candidate possible au #RN\", assure Thierry Mariani : PRÉSIDENTIELLES - À l’occasion du 17e congrès du RN à Perpignan, Thierry Mariani a cherché à rassurer sur les chances de.. https://t.co/Ihi3GO6teG https://t.co/VJ6tKvvqux"
    },
    {
        "text": "RT @Sonia_Lauvard: 🔵 Assemblée Générale Ordinaire du #RN\n✔️ Rapport moral de la Présidente, Marine Le Pen #MLP\n👉S’unir pour la #France, ave…"
    },
    {
        "text": "RT @Sonia_Lauvard: 🔵 Assemblée Générale Ordinaire du #RN\n✔️ Rapport moral de la Présidente, Marine Le Pen #MLP\n👉S’unir pour la #France, ave…"
    },
    {
        "text": "RT @Sonia_Lauvard: 🔵 Assemblée Générale Ordinaire du #RN\n✔️ Rapport moral de la Présidente, Marine Le Pen #MLP\n👉S’unir pour la #France, ave…"
    },
    {
        "text": "#Antenne2tv selon #MontelSophie qui a quitté le F-HAINE #RN Marine LE PEN #MLP_officiel s'est entourée d'une cour recrutée parmi ses proches, conjoints de la famille comme #AlliotLouis ou #J_Bardella ou amis des proches, des losers qui brillent par leur incompétence 🤣🤣🤣"
    },
    {
        "text": "#CNEWS #BFMTV #LCI selon #MontelSophie qui a quitté le F-HAINE #RN Marine LE PEN #MLP_officiel s'est entourée d'une cour recrutée parmi ses proches, conjoints de la famille comme #AlliotLouis ou #J_Bardella ou amis des proches, des losers qui brillent par leur incompétence 🤣🤣🤣"
    },
    {
        "text": "RT @Sonia_Lauvard: 🔵 Assemblée Générale Ordinaire du #RN\n✔️ Rapport moral de la Présidente, Marine Le Pen #MLP\n👉S’unir pour la #France, ave…"
    },
    {
        "text": "🔵 Assemblée Générale Ordinaire du #RN\n✔️ Rapport moral de la Présidente, Marine Le Pen #MLP\n👉S’unir pour la #France, avec #Marine ! #CongresRN #Congres #Perpignan https://t.co/igiwNMWzBl"
    },
    {
        "text": "(Europe1): À Hénin-Beaumont, #Marine Le Pen ne fait pas l'unanimité pour représenter le #RN en 2022 : À Hénin-Beaumont, Marine Le Pen ne fait pas l'unanimité pour représenter le RN en 2022 ABONNEZ-VOUS pour plus de vidéos :.. https://t.co/FBiwwzj5AI https://t.co/bTJntPUc71"
    },
    {
        "text": "(France TV Info): #UE : #Marine Le Pen, Victor Orbán et Matteo Salvini visent une \"alliance\" au Parlement européen : Le Rassemblement national a publié une déclaration, présentée comme \"la première pierre\" d'une alliance au.. https://t.co/hActWW8H48 https://t.co/4rlaybN1iW"
    },
    {
        "text": "Pour Jean-Marie #LePen, \"l'échec\" du #RN aux #Regionales  \"imputable à une erreur de ligne\"\n\nForce est de constater que le Menhir n'a as perdu son flair politique \n\n#Marine en est, elle, largement dépourvue \n\n https://t.co/0bxODcQYpc via @europe1"
    },
    {
        "text": "RT @Valeurs: 🔴 Selon #JeanMarieLePen, « #Marine doit revenir aux fondamentaux » ou elle disparaitra.\nhttps://t.co/yl4tG1e3Pc"
    },
    {
        "text": "RT @fbleunord: #Marine Le Pen et #Steeve Briois viennent tout juste de faire leur entrée au conseil départemental du Pas-de-Calais https://…"
    },
    {
        "text": "#Marine Le Pen et #Steeve Briois viennent tout juste de faire leur entrée au conseil départemental du Pas-de-Calais https://t.co/h99WkNpxPD"
    },
    {
        "text": "RT @Valeurs: 🔴 Selon #JeanMarieLePen, « #Marine doit revenir aux fondamentaux » ou elle disparaitra.\nhttps://t.co/yl4tG1e3Pc"
    },
    {
        "text": "#CNEWS #BFMTV #LCI Si #MLP_officiel Marine Le Pen était élue à l'Elysée les élections locales avec 20% pour le #RN montre qu'elle ne réussirait pas à faire FRONT pour faire le RASSEMBLEMENT pour avoir la majorité à l'Assemblée Nationale"
    },
    {
        "text": "#CNEWS #BFMTV #LCI Si #MLP_officiel #RN M Le Pen était élue à l'Elysée il est clair que contrairement à ce qui se passe tjrs après une Présidentielle elle ne réussirait pas à faire FRONT pour faire le RASSEMBLEMENT qui lui permettrait d'avoir la majorité à l'Assemblée Nationale"
    },
    {
        "text": "RT @Valeurs: 🔴 Selon #JeanMarieLePen, « #Marine doit revenir aux fondamentaux » ou elle disparaitra.\nhttps://t.co/yl4tG1e3Pc"
    },
    {
        "text": "RT @Valeurs: 🔴 Selon #JeanMarieLePen, « #Marine doit revenir aux fondamentaux » ou elle disparaitra.\nhttps://t.co/yl4tG1e3Pc"
    },
    {
        "text": "RT @Valeurs: 🔴 Selon #JeanMarieLePen, « #Marine doit revenir aux fondamentaux » ou elle disparaitra.\nhttps://t.co/yl4tG1e3Pc"
    },
    {
        "text": "RT @Valeurs: 🔴 Selon #JeanMarieLePen, « #Marine doit revenir aux fondamentaux » ou elle disparaitra.\nhttps://t.co/yl4tG1e3Pc"
    },
    {
        "text": "RT @Valeurs: 🔴 Selon #JeanMarieLePen, « #Marine doit revenir aux fondamentaux » ou elle disparaitra.\nhttps://t.co/yl4tG1e3Pc"
    },
    {
        "text": "RT @Valeurs: 🔴 Selon #JeanMarieLePen, « #Marine doit revenir aux fondamentaux » ou elle disparaitra.\nhttps://t.co/yl4tG1e3Pc"
    },
    {
        "text": "RT @Valeurs: 🔴 Selon #JeanMarieLePen, « #Marine doit revenir aux fondamentaux » ou elle disparaitra.\nhttps://t.co/yl4tG1e3Pc"
    },
    {
        "text": "RT @Valeurs: 🔴 Selon #JeanMarieLePen, « #Marine doit revenir aux fondamentaux » ou elle disparaitra.\nhttps://t.co/yl4tG1e3Pc"
    },
    {
        "text": "RT @Valeurs: 🔴 Selon #JeanMarieLePen, « #Marine doit revenir aux fondamentaux » ou elle disparaitra.\nhttps://t.co/yl4tG1e3Pc"
    },
    {
        "text": "RT @Valeurs: 🔴 Selon #JeanMarieLePen, « #Marine doit revenir aux fondamentaux » ou elle disparaitra.\nhttps://t.co/yl4tG1e3Pc"
    },
    {
        "text": "RT @Valeurs: 🔴 Selon #JeanMarieLePen, « #Marine doit revenir aux fondamentaux » ou elle disparaitra.\nhttps://t.co/yl4tG1e3Pc"
    },
    {
        "text": "RT @Valeurs: 🔴 Selon #JeanMarieLePen, « #Marine doit revenir aux fondamentaux » ou elle disparaitra.\nhttps://t.co/yl4tG1e3Pc"
    },
    {
        "text": "RT @Valeurs: 🔴 Selon #JeanMarieLePen, « #Marine doit revenir aux fondamentaux » ou elle disparaitra.\nhttps://t.co/yl4tG1e3Pc"
    },
    {
        "text": "RT @Valeurs: 🔴 Selon #JeanMarieLePen, « #Marine doit revenir aux fondamentaux » ou elle disparaitra.\nhttps://t.co/yl4tG1e3Pc"
    },
    {
        "text": "RT @Valeurs: 🔴 Selon #JeanMarieLePen, « #Marine doit revenir aux fondamentaux » ou elle disparaitra.\nhttps://t.co/yl4tG1e3Pc"
    },
    {
        "text": "RT @Valeurs: 🔴 Selon #JeanMarieLePen, « #Marine doit revenir aux fondamentaux » ou elle disparaitra.\nhttps://t.co/yl4tG1e3Pc"
    },
    {
        "text": "RT @Valeurs: 🔴 Selon #JeanMarieLePen, « #Marine doit revenir aux fondamentaux » ou elle disparaitra.\nhttps://t.co/yl4tG1e3Pc"
    },
    {
        "text": "RT @Valeurs: 🔴 Selon #JeanMarieLePen, « #Marine doit revenir aux fondamentaux » ou elle disparaitra.\nhttps://t.co/yl4tG1e3Pc"
    },
    {
        "text": "RT @Valeurs: 🔴 Selon #JeanMarieLePen, « #Marine doit revenir aux fondamentaux » ou elle disparaitra.\nhttps://t.co/yl4tG1e3Pc"
    },
    {
        "text": "RT @Valeurs: 🔴 Selon #JeanMarieLePen, « #Marine doit revenir aux fondamentaux » ou elle disparaitra.\nhttps://t.co/yl4tG1e3Pc"
    },
    {
        "text": "RT @Valeurs: 🔴 Selon #JeanMarieLePen, « #Marine doit revenir aux fondamentaux » ou elle disparaitra.\nhttps://t.co/yl4tG1e3Pc"
    },
    {
        "text": "RT @Valeurs: 🔴 Selon #JeanMarieLePen, « #Marine doit revenir aux fondamentaux » ou elle disparaitra.\nhttps://t.co/yl4tG1e3Pc"
    },
    {
        "text": "RT @Valeurs: 🔴 Selon #JeanMarieLePen, « #Marine doit revenir aux fondamentaux » ou elle disparaitra.\nhttps://t.co/yl4tG1e3Pc"
    },
    {
        "text": "RT @Valeurs: 🔴 Selon #JeanMarieLePen, « #Marine doit revenir aux fondamentaux » ou elle disparaitra.\nhttps://t.co/yl4tG1e3Pc"
    },
    {
        "text": "RT @Valeurs: 🔴 Selon #JeanMarieLePen, « #Marine doit revenir aux fondamentaux » ou elle disparaitra.\nhttps://t.co/yl4tG1e3Pc"
    },
    {
        "text": "RT @Valeurs: 🔴 Selon #JeanMarieLePen, « #Marine doit revenir aux fondamentaux » ou elle disparaitra.\nhttps://t.co/yl4tG1e3Pc"
    },
    {
        "text": "RT @Valeurs: 🔴 Selon #JeanMarieLePen, « #Marine doit revenir aux fondamentaux » ou elle disparaitra.\nhttps://t.co/yl4tG1e3Pc"
    },
    {
        "text": "RT @Valeurs: 🔴 Selon #JeanMarieLePen, « #Marine doit revenir aux fondamentaux » ou elle disparaitra.\nhttps://t.co/yl4tG1e3Pc"
    },
    {
        "text": "RT @Valeurs: 🔴 Selon #JeanMarieLePen, « #Marine doit revenir aux fondamentaux » ou elle disparaitra.\nhttps://t.co/yl4tG1e3Pc"
    },
    {
        "text": "RT @Valeurs: 🔴 Selon #JeanMarieLePen, « #Marine doit revenir aux fondamentaux » ou elle disparaitra.\nhttps://t.co/yl4tG1e3Pc"
    },
    {
        "text": "RT @Valeurs: 🔴 Selon #JeanMarieLePen, « #Marine doit revenir aux fondamentaux » ou elle disparaitra.\nhttps://t.co/yl4tG1e3Pc"
    },
    {
        "text": "RT @Valeurs: 🔴 Selon #JeanMarieLePen, « #Marine doit revenir aux fondamentaux » ou elle disparaitra.\nhttps://t.co/yl4tG1e3Pc"
    },
    {
        "text": "RT @Valeurs: 🔴 Selon #JeanMarieLePen, « #Marine doit revenir aux fondamentaux » ou elle disparaitra.\nhttps://t.co/yl4tG1e3Pc"
    },
    {
        "text": "RT @Valeurs: 🔴 Selon #JeanMarieLePen, « #Marine doit revenir aux fondamentaux » ou elle disparaitra.\nhttps://t.co/yl4tG1e3Pc"
    },
    {
        "text": "RT @Valeurs: 🔴 Selon #JeanMarieLePen, « #Marine doit revenir aux fondamentaux » ou elle disparaitra.\nhttps://t.co/yl4tG1e3Pc"
    },
    {
        "text": "RT @Valeurs: 🔴 Selon #JeanMarieLePen, « #Marine doit revenir aux fondamentaux » ou elle disparaitra.\nhttps://t.co/yl4tG1e3Pc"
    },
    {
        "text": "RT @Valeurs: 🔴 Selon #JeanMarieLePen, « #Marine doit revenir aux fondamentaux » ou elle disparaitra.\nhttps://t.co/yl4tG1e3Pc"
    },
    {
        "text": "RT @Valeurs: 🔴 Selon #JeanMarieLePen, « #Marine doit revenir aux fondamentaux » ou elle disparaitra.\nhttps://t.co/yl4tG1e3Pc"
    },
    {
        "text": "RT @Valeurs: 🔴 Selon #JeanMarieLePen, « #Marine doit revenir aux fondamentaux » ou elle disparaitra.\nhttps://t.co/yl4tG1e3Pc"
    },
    {
        "text": "RT @Valeurs: 🔴 Selon #JeanMarieLePen, « #Marine doit revenir aux fondamentaux » ou elle disparaitra.\nhttps://t.co/yl4tG1e3Pc"
    },
    {
        "text": "RT @Valeurs: 🔴 Selon #JeanMarieLePen, « #Marine doit revenir aux fondamentaux » ou elle disparaitra.\nhttps://t.co/yl4tG1e3Pc"
    },
    {
        "text": "RT @Valeurs: 🔴 Selon #JeanMarieLePen, « #Marine doit revenir aux fondamentaux » ou elle disparaitra.\nhttps://t.co/yl4tG1e3Pc"
    },
    {
        "text": "RT @Valeurs: 🔴 Selon #JeanMarieLePen, « #Marine doit revenir aux fondamentaux » ou elle disparaitra.\nhttps://t.co/yl4tG1e3Pc"
    },
    {
        "text": "RT @Valeurs: 🔴 Selon #JeanMarieLePen, « #Marine doit revenir aux fondamentaux » ou elle disparaitra.\nhttps://t.co/yl4tG1e3Pc"
    },
    {
        "text": "RT @Valeurs: 🔴 Selon #JeanMarieLePen, « #Marine doit revenir aux fondamentaux » ou elle disparaitra.\nhttps://t.co/yl4tG1e3Pc"
    },
    {
        "text": "RT @Valeurs: 🔴 Selon #JeanMarieLePen, « #Marine doit revenir aux fondamentaux » ou elle disparaitra.\nhttps://t.co/yl4tG1e3Pc"
    },
    {
        "text": "RT @Valeurs: 🔴 Selon #JeanMarieLePen, « #Marine doit revenir aux fondamentaux » ou elle disparaitra.\nhttps://t.co/yl4tG1e3Pc"
    },
    {
        "text": "RT @Valeurs: 🔴 Selon #JeanMarieLePen, « #Marine doit revenir aux fondamentaux » ou elle disparaitra.\nhttps://t.co/yl4tG1e3Pc"
    },
    {
        "text": "RT @Valeurs: 🔴 Selon #JeanMarieLePen, « #Marine doit revenir aux fondamentaux » ou elle disparaitra.\nhttps://t.co/yl4tG1e3Pc"
    },
    {
        "text": "RT @Valeurs: 🔴 Selon #JeanMarieLePen, « #Marine doit revenir aux fondamentaux » ou elle disparaitra.\nhttps://t.co/yl4tG1e3Pc"
    },
    {
        "text": "RT @Valeurs: 🔴 Selon #JeanMarieLePen, « #Marine doit revenir aux fondamentaux » ou elle disparaitra.\nhttps://t.co/yl4tG1e3Pc"
    },
    {
        "text": "RT @Valeurs: 🔴 Selon #JeanMarieLePen, « #Marine doit revenir aux fondamentaux » ou elle disparaitra.\nhttps://t.co/yl4tG1e3Pc"
    },
    {
        "text": "RT @Valeurs: 🔴 Selon #JeanMarieLePen, « #Marine doit revenir aux fondamentaux » ou elle disparaitra.\nhttps://t.co/yl4tG1e3Pc"
    },
    {
        "text": "RT @Valeurs: 🔴 Selon #JeanMarieLePen, « #Marine doit revenir aux fondamentaux » ou elle disparaitra.\nhttps://t.co/yl4tG1e3Pc"
    },
    {
        "text": "RT @Valeurs: 🔴 Selon #JeanMarieLePen, « #Marine doit revenir aux fondamentaux » ou elle disparaitra.\nhttps://t.co/yl4tG1e3Pc"
    },
    {
        "text": "RT @Valeurs: 🔴 Selon #JeanMarieLePen, « #Marine doit revenir aux fondamentaux » ou elle disparaitra.\nhttps://t.co/yl4tG1e3Pc"
    },
    {
        "text": "RT @Valeurs: 🔴 Selon #JeanMarieLePen, « #Marine doit revenir aux fondamentaux » ou elle disparaitra.\nhttps://t.co/yl4tG1e3Pc"
    },
    {
        "text": "RT @Valeurs: 🔴 Selon #JeanMarieLePen, « #Marine doit revenir aux fondamentaux » ou elle disparaitra.\nhttps://t.co/yl4tG1e3Pc"
    },
    {
        "text": "RT @Valeurs: 🔴 Selon #JeanMarieLePen, « #Marine doit revenir aux fondamentaux » ou elle disparaitra.\nhttps://t.co/yl4tG1e3Pc"
    },
    {
        "text": "RT @Valeurs: 🔴 Selon #JeanMarieLePen, « #Marine doit revenir aux fondamentaux » ou elle disparaitra.\nhttps://t.co/yl4tG1e3Pc"
    },
    {
        "text": "RT @Valeurs: 🔴 Selon #JeanMarieLePen, « #Marine doit revenir aux fondamentaux » ou elle disparaitra.\nhttps://t.co/yl4tG1e3Pc"
    },
    {
        "text": "RT @Valeurs: 🔴 Selon #JeanMarieLePen, « #Marine doit revenir aux fondamentaux » ou elle disparaitra.\nhttps://t.co/yl4tG1e3Pc"
    },
    {
        "text": "RT @Valeurs: 🔴 Selon #JeanMarieLePen, « #Marine doit revenir aux fondamentaux » ou elle disparaitra.\nhttps://t.co/yl4tG1e3Pc"
    },
    {
        "text": "RT @Valeurs: 🔴 Selon #JeanMarieLePen, « #Marine doit revenir aux fondamentaux » ou elle disparaitra.\nhttps://t.co/yl4tG1e3Pc"
    },
    {
        "text": "RT @Valeurs: 🔴 Selon #JeanMarieLePen, « #Marine doit revenir aux fondamentaux » ou elle disparaitra.\nhttps://t.co/yl4tG1e3Pc"
    },
    {
        "text": "RT @Valeurs: 🔴 Selon #JeanMarieLePen, « #Marine doit revenir aux fondamentaux » ou elle disparaitra.\nhttps://t.co/yl4tG1e3Pc"
    },
    {
        "text": "RT @Valeurs: 🔴 Selon #JeanMarieLePen, « #Marine doit revenir aux fondamentaux » ou elle disparaitra.\nhttps://t.co/yl4tG1e3Pc"
    },
    {
        "text": "RT @Valeurs: 🔴 Selon #JeanMarieLePen, « #Marine doit revenir aux fondamentaux » ou elle disparaitra.\nhttps://t.co/yl4tG1e3Pc"
    },
    {
        "text": "RT @Valeurs: 🔴 Selon #JeanMarieLePen, « #Marine doit revenir aux fondamentaux » ou elle disparaitra.\nhttps://t.co/yl4tG1e3Pc"
    },
    {
        "text": "RT @Valeurs: 🔴 Selon #JeanMarieLePen, « #Marine doit revenir aux fondamentaux » ou elle disparaitra.\nhttps://t.co/yl4tG1e3Pc"
    },
    {
        "text": "RT @Valeurs: 🔴 Selon #JeanMarieLePen, « #Marine doit revenir aux fondamentaux » ou elle disparaitra.\nhttps://t.co/yl4tG1e3Pc"
    },
    {
        "text": "RT @Valeurs: 🔴 Selon #JeanMarieLePen, « #Marine doit revenir aux fondamentaux » ou elle disparaitra.\nhttps://t.co/yl4tG1e3Pc"
    },
    {
        "text": "RT @Valeurs: 🔴 Selon #JeanMarieLePen, « #Marine doit revenir aux fondamentaux » ou elle disparaitra.\nhttps://t.co/yl4tG1e3Pc"
    },
    {
        "text": "RT @Valeurs: 🔴 Selon #JeanMarieLePen, « #Marine doit revenir aux fondamentaux » ou elle disparaitra.\nhttps://t.co/yl4tG1e3Pc"
    },
    {
        "text": "RT @Valeurs: 🔴 Selon #JeanMarieLePen, « #Marine doit revenir aux fondamentaux » ou elle disparaitra.\nhttps://t.co/yl4tG1e3Pc"
    }
]