[{
        "index": {
            "_index": "group7",
            "_type": "_doc",
            "_id": "0"
        }
    },
    {
        "text": "RT @Guffin_Mac: @jylgallou @jeanYvesCamus1 @ZemmourEric @TDeransart Depuis le mois d'avril et le fameux débat entre Zemmour et @PhdeVillier…"
    },
    {
        "index": {
            "_index": "group7",
            "_type": "_doc",
            "_id": "1"
        }
    },
    {
        "text": "#MLP \nUne brosse à balais et une serpillère ne font jamais bon ménage"
    },
    {
        "index": {
            "_index": "group7",
            "_type": "_doc",
            "_id": "2"
        }
    },
    {
        "text": "RT @jylgallou: Analyse de @jeanYvesCamus1 sur #MLP et @ZemmourEric qui sous estime néanmoins:\n-la mobilisation de bcp de jeunes maintenus à…"
    },
    {
        "index": {
            "_index": "group7",
            "_type": "_doc",
            "_id": "3"
        }
    },
    {
        "text": "RT @ThFerrier: 2022, à droite.\n\nDonc, nouvelle candidature de #MLP, nouvelle candidature de #NDA. On ira loin comme ça..."
    },
    {
        "index": {
            "_index": "group7",
            "_type": "_doc",
            "_id": "4"
        }
    },
    {
        "text": "@laffont9 Excellent 🤩 \nLes chinois pourraient-ils nous faire part de leurs commentaires sur @JLMelenchon @EricPiolle ou #MLP ?"
    },
    {
        "index": {
            "_index": "group7",
            "_type": "_doc",
            "_id": "5"
        }
    },
    {
        "text": "RT @rousselguillau7: Là je twitte que #MLP a sauvé sa saison en se faisant réélire avec plus de 98% à la présidence du #RN\n\nUne victoire à…"
    },
    {
        "index": {
            "_index": "group7",
            "_type": "_doc",
            "_id": "6"
        }
    },
    {
        "text": "RT @jylgallou: Bien sûr l’abstention est un facteur explicatif majeur: reste que de 2012 à 2017 le #FN à progressé à chaque élection interm…"
    },
    {
        "index": {
            "_index": "group7",
            "_type": "_doc",
            "_id": "7"
        }
    },
    {
        "text": "RT @Wistiti84470505: #Perpignan \n\n⭕️🔴...Grosse Mobilisation cette après-midi dans les rues de la ville contre l’#extremedroite et ses idées…"
    },
    {
        "index": {
            "_index": "group7",
            "_type": "_doc",
            "_id": "8"
        }
    },
    {
        "text": "RT @EGobillard: Petit rappel généalogique du #népotisme au #FN #RN, #MarieCarolineLePen est :\n🔸️la fille aînée de #JeanMarieLePen,\n🔸️la mèr…"
    },
    {
        "index": {
            "_index": "group7",
            "_type": "_doc",
            "_id": "9"
        }
    },
    {
        "text": "RT @PonyPicsBot: Credits : Ambris\nTwitter : https://t.co/DMndH1sexz\nSource : https://t.co/GaUo2zjs1W\nDB : https://t.co/htRAxJMQsW\n#MLP #MLP…"
    },
    {
        "index": {
            "_index": "group7",
            "_type": "_doc",
            "_id": "10"
        }
    },
    {
        "text": "@BFMTV Ça ne sort pas de la famille. #JordanBardella est en couple avec #NolwennOlivier la nièce de #MLP."
    },
    {
        "index": {
            "_index": "group7",
            "_type": "_doc",
            "_id": "11"
        }
    },
    {
        "text": "RT @jylgallou: Bien sûr l’abstention est un facteur explicatif majeur: reste que de 2012 à 2017 le #FN à progressé à chaque élection interm…"
    },
    {
        "index": {
            "_index": "group7",
            "_type": "_doc",
            "_id": "12"
        }
    },
    {
        "text": "@jylgallou @jeanYvesCamus1 @ZemmourEric @TDeransart Depuis le mois d'avril et le fameux débat entre Zemmour et @PhdeVilliers sur Cnews, je pense - et l'analyse de M. Camus le confirme - que le meilleur scénario pourrait être #DeVilliers2022. Ainsi #Zemmour conserverait son audience médiatique. #Présidentielle2022 #MLP #MLP2022"
    },
    {
        "index": {
            "_index": "group7",
            "_type": "_doc",
            "_id": "13"
        }
    },
    {
        "text": "RT @SFWDerpiUp: Credits : Acersiii\nSource : https://t.co/wuIlGJ97Zl\nDB : https://t.co/nPwVFqsLXc\n#MLP #MLPFiM #Brony https://t.co/mc6nUf85iM"
    },
    {
        "index": {
            "_index": "group7",
            "_type": "_doc",
            "_id": "14"
        }
    },
    {
        "text": "RT @Rue89Lyon: Les affrontements de lundi soir rue Mercière impliquent de nouveau l’extrême droite radicale, dont un cadre du mouvement dis…"
    },
    {
        "index": {
            "_index": "group7",
            "_type": "_doc",
            "_id": "15"
        }
    },
    {
        "text": "Je crois bien que @MarleneSchiappa est définitivement fâchée avec ses potes du @PrintempsRepub. En même temps, s’appuyer sur les «#trolls &amp; #bots d’#extrêmeDroite» et se ramasser quand même aux élections (Municipales #Paris puis Régionales #iDF) je la comprends… https://t.co/7i1FS92AF2"
    },
    {
        "index": {
            "_index": "group7",
            "_type": "_doc",
            "_id": "16"
        }
    },
    {
        "text": "RT @SFWDerpiUp: Credits : Acersiii\nSource : https://t.co/wuIlGJ97Zl\nDB : https://t.co/nPwVFqsLXc\n#MLP #MLPFiM #Brony https://t.co/mc6nUf85iM"
    },
    {
        "index": {
            "_index": "group7",
            "_type": "_doc",
            "_id": "17"
        }
    },
    {
        "text": "RT @SFWDerpiUp: Credits : Acersiii\nSource : https://t.co/wuIlGJ97Zl\nDB : https://t.co/nPwVFqsLXc\n#MLP #MLPFiM #Brony https://t.co/mc6nUf85iM"
    },
    {
        "index": {
            "_index": "group7",
            "_type": "_doc",
            "_id": "18"
        }
    },
    {
        "text": "RT @SFWDerpiUp: Credits : Acersiii\nSource : https://t.co/wuIlGJ97Zl\nDB : https://t.co/nPwVFqsLXc\n#MLP #MLPFiM #Brony https://t.co/mc6nUf85iM"
    },
    {
        "index": {
            "_index": "group7",
            "_type": "_doc",
            "_id": "19"
        }
    },
    {
        "text": "RT @SFWDerpiUp: Credits : Acersiii\nSource : https://t.co/wuIlGJ97Zl\nDB : https://t.co/nPwVFqsLXc\n#MLP #MLPFiM #Brony https://t.co/mc6nUf85iM"
    },
    {
        "index": {
            "_index": "group7",
            "_type": "_doc",
            "_id": "20"
        }
    },
    {
        "text": "RT @Rue89Lyon: Les affrontements de lundi soir rue Mercière impliquent de nouveau l’extrême droite radicale, dont un cadre du mouvement dis…"
    },
    {
        "index": {
            "_index": "group7",
            "_type": "_doc",
            "_id": "21"
        }
    },
    {
        "text": "Credits : Acersiii\nSource : https://t.co/wuIlGJ97Zl\nDB : https://t.co/nPwVFqsLXc\n#MLP #MLPFiM #Brony https://t.co/mc6nUf85iM"
    },
    {
        "index": {
            "_index": "group7",
            "_type": "_doc",
            "_id": "22"
        }
    },
    {
        "text": "RT @jylgallou: Bien sûr l’abstention est un facteur explicatif majeur: reste que de 2012 à 2017 le #FN à progressé à chaque élection interm…"
    },
    {
        "index": {
            "_index": "group7",
            "_type": "_doc",
            "_id": "23"
        }
    },
    {
        "text": "RT @DebunkerHED: Mise à jour de notre article sur la #violence d' #extremedroite, mauvaise nouvelles, elles augmentent et sont de plus en p…"
    },
    {
        "index": {
            "_index": "group7",
            "_type": "_doc",
            "_id": "24"
        }
    },
    {
        "text": "RT @CheeperOff: Petit repas en attendant le discours de notre présidente #MLP avec @NicolasBay_ 🇫🇷 https://t.co/T5uDaSKyaD"
    },
    {
        "index": {
            "_index": "group7",
            "_type": "_doc",
            "_id": "25"
        }
    },
    {
        "text": "Là je twitte que #MLP a sauvé sa saison en se faisant réélire avec plus de 98% à la présidence du #RN\n\nUne victoire à la #VladimirPutin \nBonne nuit les petiots. https://t.co/aBiRhSyIdY"
    },
    {
        "index": {
            "_index": "group7",
            "_type": "_doc",
            "_id": "26"
        }
    },
    {
        "text": "RT @PonyPicsBot: Credits : Ambris\nTwitter : https://t.co/DMndH1sexz\nSource : https://t.co/GaUo2zjs1W\nDB : https://t.co/htRAxJMQsW\n#MLP #MLP…"
    },
    {
        "index": {
            "_index": "group7",
            "_type": "_doc",
            "_id": "27"
        }
    },
    {
        "text": "RT @netchys: C'est fou le plus important c'est la défaite de son champion #Macron mais @LCI titre sur #MLP. \nPar ailleurs, je ne voterai pa…"
    },
    {
        "index": {
            "_index": "group7",
            "_type": "_doc",
            "_id": "28"
        }
    },
    {
        "text": "RT @CheeperOff: Petit repas en attendant le discours de notre présidente #MLP avec @NicolasBay_ 🇫🇷 https://t.co/T5uDaSKyaD"
    },
    {
        "index": {
            "_index": "group7",
            "_type": "_doc",
            "_id": "29"
        }
    },
    {
        "text": "RT @CheeperOff: Petit repas en attendant le discours de notre présidente #MLP avec @NicolasBay_ 🇫🇷 https://t.co/T5uDaSKyaD"
    },
    {
        "index": {
            "_index": "group7",
            "_type": "_doc",
            "_id": "30"
        }
    },
    {
        "text": "RT @rahan_e: #France Des politicards français obsédés par la #Presidentielle. Et on s’étonne de l'abstention. On en a marre. \n#Mélenchon #D…"
    },
    {
        "index": {
            "_index": "group7",
            "_type": "_doc",
            "_id": "31"
        }
    },
    {
        "text": "@eraiyofr @NaphtalineLeBon Pour être clairs, précisons que #MLP roule pour l'Allemagne, ce qui n'est pas étonnant quand on sait que son parti fut fondé par des anciens de la division Charlemagne et des waffen ss. Si on ajoute à ça le fric qu'elle touche en tant qu'eurodéputée pour brader la🇫🇷 à l'🇩🇪via #UE"
    },
    {
        "index": {
            "_index": "group7",
            "_type": "_doc",
            "_id": "32"
        }
    },
    {
        "text": "@david_rachline @RNational_off @MLP_officiel 50 ans de lepen. 98%… Un beau score de dictateur africain… #extremedroite"
    },
    {
        "index": {
            "_index": "group7",
            "_type": "_doc",
            "_id": "33"
        }
    },
    {
        "text": "Marine Staline #LePen réélue..\n\n#extremedroite #RN #trump #poutine https://t.co/LJWYt2rRwJ"
    },
    {
        "index": {
            "_index": "group7",
            "_type": "_doc",
            "_id": "34"
        }
    },
    {
        "text": "@Izabelrichard Et l'#extremedroite ... c'est de la 💩..."
    },
    {
        "index": {
            "_index": "group7",
            "_type": "_doc",
            "_id": "35"
        }
    },
    {
        "text": "RT @Mathilde_Klara: Oh la la cette dictature où les opposants sont muselés et les Medias sont à la solde du pouvoir ....\n15h meeting de #ML…"
    },
    {
        "index": {
            "_index": "group7",
            "_type": "_doc",
            "_id": "36"
        }
    },
    {
        "text": "RT @rahan_e: #France Des politicards français obsédés par la #Presidentielle. Et on s’étonne de l'abstention. On en a marre. \n#Mélenchon #D…"
    },
    {
        "index": {
            "_index": "group7",
            "_type": "_doc",
            "_id": "37"
        }
    },
    {
        "text": "@LCI @RobertMenardFR @Acarrouer C'est dingue de penser que #MLP, avec 2 échecs aux présidentielles, un débat raté en 2017 et une débâcle en 2021 aux régionales ferait une meilleure candidate que le Z..."
    },
    {
        "index": {
            "_index": "group7",
            "_type": "_doc",
            "_id": "38"
        }
    },
    {
        "text": "RT @r_bertozzo: Bravo à nos alliés du RN pour leur magnifique Congrès qui manifeste la volonté d'amener @MLP_officiel à la présidence de la…"
    },
    {
        "index": {
            "_index": "group7",
            "_type": "_doc",
            "_id": "39"
        }
    },
    {
        "text": "@Traineur2 Non Alex ils ne vont pas se réveiller, ils croient dur comme fer qu'avec #MLP au pouvoir, ils vont se débarrasser de tous les immigrés, pffffffff des DEBILES"
    },
    {
        "index": {
            "_index": "group7",
            "_type": "_doc",
            "_id": "40"
        }
    },
    {
        "text": "RT @joursansfin: Petit rappel\nConfrontée, à deux reprises au moins, aux idées racistes proférées par ses alliés européens, Marine Le Pen ad…"
    },
    {
        "index": {
            "_index": "group7",
            "_type": "_doc",
            "_id": "41"
        }
    },
    {
        "text": "RT @CoyLoup: Peut importe l'emballage c'est et sera encore un partis  d'#extremedroite."
    },
    {
        "index": {
            "_index": "group7",
            "_type": "_doc",
            "_id": "42"
        }
    },
    {
        "text": "RT @patnice63: #MLP qui parle de nucléaire nouvelle génération....MDR quand on voit le merdier que c est pour un EPR....."
    },
    {
        "index": {
            "_index": "group7",
            "_type": "_doc",
            "_id": "43"
        }
    },
    {
        "text": "RT @98Memorial: Brochette d'#antisémites lors du \"Bal des quenelles\" de #Dieudonné le 26 juin dernier. Avec #JeanMarieLePen et #BrunoGollni…"
    },
    {
        "index": {
            "_index": "group7",
            "_type": "_doc",
            "_id": "44"
        }
    },
    {
        "text": "RT @tcabarrus: Je n'en peux plus d'écouter les partisans de l'#extremedroite partout sur les #telestoutinfo: 1-Marine #LePen dans un long d…"
    },
    {
        "index": {
            "_index": "group7",
            "_type": "_doc",
            "_id": "45"
        }
    },
    {
        "text": "Le même argumentaire que la député qui parlait des dances d'origines aux mariage.\nGrâce à #cnews les réthoriques de l'#extrêmedroite pilulent. https://t.co/jXdco3tVdB"
    },
    {
        "index": {
            "_index": "group7",
            "_type": "_doc",
            "_id": "46"
        }
    },
    {
        "text": "RT @tcabarrus: Je n'en peux plus d'écouter les partisans de l'#extremedroite partout sur les #telestoutinfo: 1-Marine #LePen dans un long d…"
    },
    {
        "index": {
            "_index": "group7",
            "_type": "_doc",
            "_id": "47"
        }
    },
    {
        "text": "RT @r_bertozzo: Bravo à nos alliés du RN pour leur magnifique Congrès qui manifeste la volonté d'amener @MLP_officiel à la présidence de la…"
    },
    {
        "index": {
            "_index": "group7",
            "_type": "_doc",
            "_id": "48"
        }
    },
    {
        "text": "RT @tcabarrus: Je n'en peux plus d'écouter les partisans de l'#extremedroite partout sur les #telestoutinfo: 1-Marine #LePen dans un long d…"
    },
    {
        "index": {
            "_index": "group7",
            "_type": "_doc",
            "_id": "49"
        }
    },
    {
        "text": "RT @BorisThiolay: Cc ⁦@francoisedegois⁩\nLa rencontre entre ⁦@vpecresse⁩ et Hala Chawi, amie d’Asma el-#Assad et intermédiaire entre des rep…"
    },
    {
        "index": {
            "_index": "group7",
            "_type": "_doc",
            "_id": "50"
        }
    },
    {
        "text": "RT @CoyLoup: Peut importe l'emballage c'est et sera encore un partis  d'#extremedroite."
    },
    {
        "index": {
            "_index": "group7",
            "_type": "_doc",
            "_id": "51"
        }
    },
    {
        "text": "RT @netchys: C'est fou le plus important c'est la défaite de son champion #Macron mais @LCI titre sur #MLP. \nPar ailleurs, je ne voterai pa…"
    },
    {
        "index": {
            "_index": "group7",
            "_type": "_doc",
            "_id": "52"
        }
    },
    {
        "text": "Peut importe l'emballage c'est et sera encore un partis  d'#extremedroite. https://t.co/9UAThCyzO3"
    },
    {
        "index": {
            "_index": "group7",
            "_type": "_doc",
            "_id": "53"
        }
    },
    {
        "text": "RT @pier2kan: Le #RN apparaît toujours d’extrême droite , à l’image du #FN avant lui!\nDoublé d’une structure clanique et ultracentralisée,…"
    },
    {
        "index": {
            "_index": "group7",
            "_type": "_doc",
            "_id": "54"
        }
    },
    {
        "text": "RT @KRYSLUVU: 🔵 #Ménard a évidemmt raison sur tte la ligne. En mm tps, c le simple bon sens. Si #Z veut s'engager pour 2022, qu'il soit con…"
    },
    {
        "index": {
            "_index": "group7",
            "_type": "_doc",
            "_id": "55"
        }
    },
    {
        "text": "RT @joursansfin: Petit rappel\nConfrontée, à deux reprises au moins, aux idées racistes proférées par ses alliés européens, Marine Le Pen ad…"
    },
    {
        "index": {
            "_index": "group7",
            "_type": "_doc",
            "_id": "56"
        }
    },
    {
        "text": "Bravo à nos alliés du RN pour leur magnifique Congrès qui manifeste la volonté d'amener @MLP_officiel à la présidence de la République 🇨🇵.\n\nFélicitations à @JphTanguy nommé au BN du RN, #MLP continue sa stratégie d'ouverture et d'union de toutes les bonnes volontés. #congresRN 🇨🇵 https://t.co/pX2r8Gn4Ou"
    },
    {
        "index": {
            "_index": "group7",
            "_type": "_doc",
            "_id": "57"
        }
    },
    {
        "text": "RT @ChapuisCamille: Les délires de l'#extrêmedroite sont extraordinaires. Dans quel monde vivent-ils pour être obsédés à ce point ? Quand j…"
    },
    {
        "index": {
            "_index": "group7",
            "_type": "_doc",
            "_id": "58"
        }
    },
    {
        "text": "C'est fou le plus important c'est la défaite de son champion #Macron mais @LCI titre sur #MLP. \nPar ailleurs, je ne voterai pas @xavierbertrand : trop hypocrite, trop faux, trop gauchiste, trop Macron-compatible. https://t.co/M6iX8TK7rd"
    },
    {
        "index": {
            "_index": "group7",
            "_type": "_doc",
            "_id": "59"
        }
    },
    {
        "text": "@CNEWS Évidemment la @gabriellecluzel vit dans un monde d'#extremedroite, alors fatalement ce sont les seuls sujets qui arrivent sur la table où qu'elle soit.\n\nQu'elle aille dîner 1 fois chez des gens normaux, elle découvrira qu'il y a d'autres sujets de discussion...\n#DaccordPasDaccord"
    },
    {
        "index": {
            "_index": "group7",
            "_type": "_doc",
            "_id": "60"
        }
    },
    {
        "text": "RT @KRYSLUVU: 🔵 #Ménard a évidemmt raison sur tte la ligne. En mm tps, c le simple bon sens. Si #Z veut s'engager pour 2022, qu'il soit con…"
    },
    {
        "index": {
            "_index": "group7",
            "_type": "_doc",
            "_id": "61"
        }
    },
    {
        "text": "@Charles23678092 que #MLP rende son tablier et le ciel s'éclaircira"
    },
    {
        "index": {
            "_index": "group7",
            "_type": "_doc",
            "_id": "62"
        }
    },
    {
        "text": "RT @joursansfin: Petit rappel\nConfrontée, à deux reprises au moins, aux idées racistes proférées par ses alliés européens, Marine Le Pen ad…"
    },
    {
        "index": {
            "_index": "group7",
            "_type": "_doc",
            "_id": "63"
        }
    },
    {
        "text": "RT @jylgallou: Bien sûr l’abstention est un facteur explicatif majeur: reste que de 2012 à 2017 le #FN à progressé à chaque élection interm…"
    },
    {
        "index": {
            "_index": "group7",
            "_type": "_doc",
            "_id": "64"
        }
    },
    {
        "text": "@HeleneLaporteRN @MLP_officiel Un parti comme ça : ça a vraiment de la gueule ! Bravo à vous 👏 on lâchera rien 👊\n#RNational_off #congresRN #MLP"
    },
    {
        "index": {
            "_index": "group7",
            "_type": "_doc",
            "_id": "65"
        }
    },
    {
        "text": "RT @jylgallou: Bien sûr l’abstention est un facteur explicatif majeur: reste que de 2012 à 2017 le #FN à progressé à chaque élection interm…"
    },
    {
        "index": {
            "_index": "group7",
            "_type": "_doc",
            "_id": "66"
        }
    },
    {
        "text": "RT @Achil89: NawakNawak, militant #LGBT de gauche (on s'en doutait) qui visiblement a la même mentalité que #JeanMarieLePen avait envers le…"
    },
    {
        "index": {
            "_index": "group7",
            "_type": "_doc",
            "_id": "67"
        }
    },
    {
        "text": "RT @tcabarrus: Je n'en peux plus d'écouter les partisans de l'#extremedroite partout sur les #telestoutinfo: 1-Marine #LePen dans un long d…"
    },
    {
        "index": {
            "_index": "group7",
            "_type": "_doc",
            "_id": "68"
        }
    },
    {
        "text": "RT @PonyPicsBot: Credits : Tai-L-Rodriguez\nSource : https://t.co/Yw8X1DCDdn\nDB : https://t.co/cpQYfDsuhe\n#MLP #MLPFiM #Brony https://t.co/2…"
    },
    {
        "index": {
            "_index": "group7",
            "_type": "_doc",
            "_id": "69"
        }
    },
    {
        "text": "RT @joursansfin: Petit rappel\nConfrontée, à deux reprises au moins, aux idées racistes proférées par ses alliés européens, Marine Le Pen ad…"
    },
    {
        "index": {
            "_index": "group7",
            "_type": "_doc",
            "_id": "70"
        }
    },
    {
        "text": "@CNEWS Ha bah c'est sur que si tes potes sont d'#extrêmedroite #racistes et que votre seule passion c'est la #haine des autres, on ne pense QU'A ÇA !\nAprès, pour les gens #normaux, ça ne se passe JAMAIS comme ça. Pour personne.\nVous êtes complètement #horssol"
    },
    {
        "index": {
            "_index": "group7",
            "_type": "_doc",
            "_id": "71"
        }
    },
    {
        "text": "RT @joursansfin: Petit rappel\nConfrontée, à deux reprises au moins, aux idées racistes proférées par ses alliés européens, Marine Le Pen ad…"
    },
    {
        "index": {
            "_index": "group7",
            "_type": "_doc",
            "_id": "72"
        }
    },
    {
        "text": "RT @tcabarrus: Je n'en peux plus d'écouter les partisans de l'#extremedroite partout sur les #telestoutinfo: 1-Marine #LePen dans un long d…"
    },
    {
        "index": {
            "_index": "group7",
            "_type": "_doc",
            "_id": "73"
        }
    },
    {
        "text": "RT @joursansfin: Petit rappel\nConfrontée, à deux reprises au moins, aux idées racistes proférées par ses alliés européens, Marine Le Pen ad…"
    },
    {
        "index": {
            "_index": "group7",
            "_type": "_doc",
            "_id": "74"
        }
    },
    {
        "text": "RT @joursansfin: Petit rappel\nConfrontée, à deux reprises au moins, aux idées racistes proférées par ses alliés européens, Marine Le Pen ad…"
    },
    {
        "index": {
            "_index": "group7",
            "_type": "_doc",
            "_id": "75"
        }
    },
    {
        "text": "RT @Midi_Ivre: Rassemblement national : Marine Le Pen réélue présidente. La réaction de Florian Philippot.\n#RN #extremedroite https://t.co/…"
    },
    {
        "index": {
            "_index": "group7",
            "_type": "_doc",
            "_id": "76"
        }
    },
    {
        "text": "RT @joursansfin: Petit rappel\nConfrontée, à deux reprises au moins, aux idées racistes proférées par ses alliés européens, Marine Le Pen ad…"
    },
    {
        "index": {
            "_index": "group7",
            "_type": "_doc",
            "_id": "77"
        }
    },
    {
        "text": "RT @Mathilde_Klara: Oh la la cette dictature où les opposants sont muselés et les Medias sont à la solde du pouvoir ....\n15h meeting de #ML…"
    },
    {
        "index": {
            "_index": "group7",
            "_type": "_doc",
            "_id": "78"
        }
    },
    {
        "text": "RT @jylgallou: Bien sûr l’abstention est un facteur explicatif majeur: reste que de 2012 à 2017 le #FN à progressé à chaque élection interm…"
    },
    {
        "index": {
            "_index": "group7",
            "_type": "_doc",
            "_id": "79"
        }
    },
    {
        "text": "RT @tcabarrus: Je n'en peux plus d'écouter les partisans de l'#extremedroite partout sur les #telestoutinfo: 1-Marine #LePen dans un long d…"
    },
    {
        "index": {
            "_index": "group7",
            "_type": "_doc",
            "_id": "80"
        }
    },
    {
        "text": "RT @Mathilde_Klara: Oh la la cette dictature où les opposants sont muselés et les Medias sont à la solde du pouvoir ....\n15h meeting de #ML…"
    },
    {
        "index": {
            "_index": "group7",
            "_type": "_doc",
            "_id": "81"
        }
    },
    {
        "text": "RT @tcabarrus: Je n'en peux plus d'écouter les partisans de l'#extremedroite partout sur les #telestoutinfo: 1-Marine #LePen dans un long d…"
    },
    {
        "index": {
            "_index": "group7",
            "_type": "_doc",
            "_id": "82"
        }
    },
    {
        "text": "RT @joursansfin: Petit rappel\nConfrontée, à deux reprises au moins, aux idées racistes proférées par ses alliés européens, Marine Le Pen ad…"
    },
    {
        "index": {
            "_index": "group7",
            "_type": "_doc",
            "_id": "83"
        }
    },
    {
        "text": "RT @jylgallou: Bien sûr l’abstention est un facteur explicatif majeur: reste que de 2012 à 2017 le #FN à progressé à chaque élection interm…"
    },
    {
        "index": {
            "_index": "group7",
            "_type": "_doc",
            "_id": "84"
        }
    },
    {
        "text": "@DidierBall @Amlei6 \"Haut\" Fonctionnaire ? 🙄🤔\n\nFÉLICITATIONS...\nBON CAMOUFLAGE, ÇA NE SE VOIT PAS DU TOUT !\n\nL'#extremedroite = 💩\nLe #racisme = 💩"
    },
    {
        "index": {
            "_index": "group7",
            "_type": "_doc",
            "_id": "85"
        }
    },
    {
        "text": "#France Des politicards français obsédés par la #Presidentielle. Et on s’étonne de l'abstention. On en a marre. \n#Mélenchon #DupontAigan #Bayrou  #presidentielles2022 \n#politicards #abstention #mobilisation #désaffection #République #LePen #MLP #RN #MarineLePen #Marine2022 https://t.co/ZHrwZ5MjbO"
    },
    {
        "index": {
            "_index": "group7",
            "_type": "_doc",
            "_id": "86"
        }
    },
    {
        "text": "RT @tcabarrus: Je n'en peux plus d'écouter les partisans de l'#extremedroite partout sur les #telestoutinfo: 1-Marine #LePen dans un long d…"
    },
    {
        "index": {
            "_index": "group7",
            "_type": "_doc",
            "_id": "87"
        }
    },
    {
        "text": "@MLP_officiel @ljacobelli Désolé #MLP_officiel les divers prises de position du #RN ces derniers mois me conviennent de moins en moins, je pense qu'ils sont en train de se coucher à la tête du #RN face à l'UE, je m'apprête à ce que #MLP dans les mois qui viennent annonce qu'elle est pro immigration !🤑"
    },
    {
        "index": {
            "_index": "group7",
            "_type": "_doc",
            "_id": "88"
        }
    },
    {
        "text": "@LCI @RobertMenardFR @Acarrouer Désolé #MLP les divers prises de position du #RN ces derniers mois me conviennent de moins en moins, je pense qu'ils sont en train de se coucher à la tête du #RN face à l'UE, je m'apprête à ce que Marine Le Pen dans les mois qui viennent annonce qu'elle est pro immigration ! 🤑"
    },
    {
        "index": {
            "_index": "group7",
            "_type": "_doc",
            "_id": "89"
        }
    },
    {
        "text": "RT @tcabarrus: Je n'en peux plus d'écouter les partisans de l'#extremedroite partout sur les #telestoutinfo: 1-Marine #LePen dans un long d…"
    },
    {
        "index": {
            "_index": "group7",
            "_type": "_doc",
            "_id": "90"
        }
    },
    {
        "text": "RT @rahan_e: 🇫🇷#Dédiabolisation réussie. Pensée politicarde : peu importe les résultats des élections, rester à la tête du parti. #France.…"
    },
    {
        "index": {
            "_index": "group7",
            "_type": "_doc",
            "_id": "91"
        }
    },
    {
        "text": "RT @joursansfin: Petit rappel\nConfrontée, à deux reprises au moins, aux idées racistes proférées par ses alliés européens, Marine Le Pen ad…"
    },
    {
        "index": {
            "_index": "group7",
            "_type": "_doc",
            "_id": "92"
        }
    },
    {
        "text": "@LCI @RobertMenardFR @Acarrouer contrairement à ce que beaucoup pensent, #MLP est autrement plus intelligente pour ne pas reprendre les idées de son père, même ! Il est vrai que les journaleux auraient préféré qu'elle revienne au #FN pour mieux la diaboliser et faire peur aux adeptes des lavages de cerveaux !"
    },
    {
        "index": {
            "_index": "group7",
            "_type": "_doc",
            "_id": "93"
        }
    },
    {
        "text": "RT @joursansfin: Petit rappel\nConfrontée, à deux reprises au moins, aux idées racistes proférées par ses alliés européens, Marine Le Pen ad…"
    },
    {
        "index": {
            "_index": "group7",
            "_type": "_doc",
            "_id": "94"
        }
    },
    {
        "text": "RT @joursansfin: @BrunoMasure @TF1 @France2tv Marine Staline #LePen réélue..\n\n#extremedroite #RN #trump #poutine https://t.co/LJWYt2rRwJ"
    },
    {
        "index": {
            "_index": "group7",
            "_type": "_doc",
            "_id": "95"
        }
    },
    {
        "text": "RT @rahan_e: 🇫🇷 C'est ça le patriotisme ? Perdre des élections en série et rester à la tête des partis qu'on mène à la défaite. #France Com…"
    },
    {
        "index": {
            "_index": "group7",
            "_type": "_doc",
            "_id": "96"
        }
    },
    {
        "text": "RT @joursansfin: Petit rappel\nConfrontée, à deux reprises au moins, aux idées racistes proférées par ses alliés européens, Marine Le Pen ad…"
    },
    {
        "index": {
            "_index": "group7",
            "_type": "_doc",
            "_id": "97"
        }
    },
    {
        "text": "@BrunoMasure @TF1 @France2tv Marine Staline #LePen réélue..\n\n#extremedroite #RN #trump #poutine https://t.co/LJWYt2rRwJ"
    },
    {
        "index": {
            "_index": "group7",
            "_type": "_doc",
            "_id": "98"
        }
    },
    {
        "text": "Ouais... \"celle-là\"... VRAIMENT SANS intérêt !!!\n\n#extremedroite = 💩 https://t.co/oMYBJBHOdV"
    },
    {
        "index": {
            "_index": "group7",
            "_type": "_doc",
            "_id": "99"
        }
    },
    {
        "text": "RT @joursansfin: Petit rappel\nConfrontée, à deux reprises au moins, aux idées racistes proférées par ses alliés européens, Marine Le Pen ad…"
    }
]