[{
        "text": "RT @HerveJuvin: Heureux d'avoir pu trouver de nombreux militants des #PaysDeLaLoire lors du #CongresRN à Perpignan ce #WeekEnd \nMobilisons-…"
    },
    {
        "text": "RT @RNational_off: « Nous croyons en la France, nous croyons dans son génie. Je vous appelle à la fierté de ce que nous sommes et de ce que…"
    },
    {
        "text": "RT @BreakingInfosTV: 🔴 #Presidentielle2022 :\n\"Mélenchon est le seul qui inquiète le capitalisme et c'est pour ça que tous les médias mainst…"
    },
    {
        "text": "RT @MLP_officiel: 📹 \"Chaque jour, des représentants de l'Etat, policiers, pompiers, professeurs, sont attaqués. Tant de fonctionnaires vont…"
    },
    {
        "text": "RT @ThierryMARIANI: 📹« Nous sommes tournés vers l'avenir. Ce qui compte maintenant c'est le combat de la #présidentielle2022 et comment évi…"
    },
    {
        "text": "RT @JulienOdoul: Unie, la famille nationale est invincible ! Heureux d’avoir partagé ce week-end à #Perpignan avec mes amis élus et militan…"
    },
    {
        "text": "RT @GrisetCatherine: « La souveraineté est à la nation ce que la liberté est aux hommes ».\n\nBRAVO @MLP_officiel pour ce grand discours pour…"
    },
    {
        "text": "RT @MLP_officiel: 📹 \"Chaque jour, des représentants de l'Etat, policiers, pompiers, professeurs, sont attaqués. Tant de fonctionnaires vont…"
    },
    {
        "text": "RT @VRebuffat: Un magnifique week-end pour ce #CongrèsRN, tous unis et rassemblés derrière notre candidate @MLP_officiel, parce que nous av…"
    },
    {
        "text": "RT @JulienOdoul: Unie, la famille nationale est invincible ! Heureux d’avoir partagé ce week-end à #Perpignan avec mes amis élus et militan…"
    },
    {
        "text": "RT @BobLeCentriste: Au #RN, on garde espoir «D’ici la présidentielle, il y aura bien des attentats!» selon Brigitte Gazel, ex-candidate en…"
    },
    {
        "text": "RT @HeleneLaporteRN: Merci à @MLP_officiel de m'avoir choisie pour siéger de nouveau au sein du bureau national ainsi qu’au sein du bureau…"
    },
    {
        "text": "RT @BBR4369: Écoutez @RobertMenardFR sur #Zemmour 🗣️Je lui ai demandé s'il avait envie d'être la Taubira de M. Jospin\n\nCad empêcher #Marine…"
    },
    {
        "text": "RT @rahan_e: #France Des politicards français obsédés par la #Presidentielle. Et on s’étonne de l'abstention. On en a marre. \n#Mélenchon #D…"
    },
    {
        "text": "RT @BreakingInfosTV: 🔴 #Presidentielle2022 :\n\"Mélenchon est le seul qui inquiète le capitalisme et c'est pour ça que tous les médias mainst…"
    },
    {
        "text": "RT @MarcGral: « On n’a pas été élu parce que les Français sont cons ! », lance provocante Brigitte Gazel, candidate #RN  malheureuse aux dé…"
    },
    {
        "text": "@LCI @RobertMenardFR @Acarrouer C'est dingue de penser que #MLP, avec 2 échecs aux présidentielles, un débat raté en 2017 et une débâcle en 2021 aux régionales ferait une meilleure candidate que le Z..."
    },
    {
        "text": "RT @RNational_off: « Nous croyons en la France, nous croyons dans son génie. Je vous appelle à la fierté de ce que nous sommes et de ce que…"
    },
    {
        "text": "RT @HerveJuvin: Heureux d'avoir pu trouver de nombreux militants des #PaysDeLaLoire lors du #CongresRN à Perpignan ce #WeekEnd \nMobilisons-…"
    },
    {
        "text": "RT @MLP_officiel: 📹 \"Nous voulons transmettre une France restaurée dans son unité. Nous voulons transmettre une France dont nous pourrons ê…"
    },
    {
        "text": "RT @CatherinePUJOL1: Je remercie bien chaleureusement les adhérents de l'hexagone et des Outre-mer qui m'ont élue en 34 ème position au Con…"
    },
    {
        "text": "RT @r_bertozzo: Bravo à nos alliés du RN pour leur magnifique Congrès qui manifeste la volonté d'amener @MLP_officiel à la présidence de la…"
    },
    {
        "text": "RT @MLP_officiel: \"Parce que rien ne va de soi, que tout relève du travail et de l’ardeur, nous avons fait nôtre la formule d’Henri Bergson…"
    },
    {
        "text": "RT @JulienOdoul: Unie, la famille nationale est invincible ! Heureux d’avoir partagé ce week-end à #Perpignan avec mes amis élus et militan…"
    },
    {
        "text": "RT @CatherinePUJOL1: Je remercie bien chaleureusement les adhérents de l'hexagone et des Outre-mer qui m'ont élue en 34 ème position au Con…"
    },
    {
        "text": "RT @AndreRougeOff: Grâce à l’#OutreMer\n➡️ la 🇫🇷 est une puissance nucléaire\n➡️ la 🇫🇷 est une puissance spatiale\n➡️ la 🇫🇷 est présente sur 3…"
    },
    {
        "text": "RT @MLP_officiel: 📹 \"Il n’y a ni plan de carrière, ni calcul personnel : je n’ai d’ambition que pour la France. Il n'y a qu'un seul moteur…"
    },
    {
        "text": "RT @BreakingInfosTV: 🔴 Archives : \"Voter Marine Le Pen c'est aider Macron. Il a besoin d'elle en face pour sa survie électorale\" Adrien Qua…"
    },
    {
        "text": "RT @MLP_officiel: 🔵⚪️🔴 La victoire, nous la devons à nos enfants. Nous la devons à notre patrie, et à sa si grande et belle histoire. \n\nNot…"
    },
    {
        "text": "RT @BreakingInfosTV: On a vu #Hidalgo,#LREM,LR sans oublier le RN de Marine le Pen venir au secours de Bernard Arnault pour une peinture d'…"
    },
    {
        "text": "RT @JulienOdoul: Unie, la famille nationale est invincible ! Heureux d’avoir partagé ce week-end à #Perpignan avec mes amis élus et militan…"
    },
    {
        "text": "RT @RNational_off: 🔴 À partir de 15h, suivez en direct le discours de Marine Le Pen, depuis le #CongrèsRN à #Perpignan 👉🏻 https://t.co/20C9…"
    },
    {
        "text": "Je remercie bien chaleureusement les adhérents de l'hexagone et des Outre-mer qui m'ont élue en 34 ème position au Conseil National de notre mouvement. XVII ème #congresRN à #Perpignan @RNational_off @MLP_officiel @J_Bardella @louis_aliot https://t.co/sVeKe9N3jm"
    },
    {
        "text": "RT @MLP_officiel: \"Parce que nous croyons dans la France et parce que nous croyons dans l’intelligence de ses enfants, nous savons que la F…"
    },
    {
        "text": "RT @RN06_officiel: 🇫🇷 FÉLICITATIONS ! @A_Masson06 intègre aujourd’hui le bureau exécutif du @RNational_off à l’occasion du #CongrèsRN. Notr…"
    },
    {
        "text": "RT @JulienOdoul: Réélue à la tête du premier parti d’opposition. Donnons-lui les rênes en 2022 pour sortir notre France de la spirale du dé…"
    },
    {
        "text": "RT @JulienOdoul: Unie, la famille nationale est invincible ! Heureux d’avoir partagé ce week-end à #Perpignan avec mes amis élus et militan…"
    },
    {
        "text": "RT @JulienOdoul: Unie, la famille nationale est invincible ! Heureux d’avoir partagé ce week-end à #Perpignan avec mes amis élus et militan…"
    },
    {
        "text": "RT @AndreRougeOff: Grâce à l’#OutreMer\n➡️ la 🇫🇷 est une puissance nucléaire\n➡️ la 🇫🇷 est une puissance spatiale\n➡️ la 🇫🇷 est présente sur 3…"
    },
    {
        "text": "RT @lauriannerossi: .@LCI \"Le #RN à perdu près de 700 élus aux dernières municipales et près de 200 élus aux départementales et régionales.…"
    },
    {
        "text": "RT @JulienOdoul: Unie, la famille nationale est invincible ! Heureux d’avoir partagé ce week-end à #Perpignan avec mes amis élus et militan…"
    },
    {
        "text": "RT @MLP_officiel: 🔵⚪️🔴 La victoire, nous la devons à nos enfants. Nous la devons à notre patrie, et à sa si grande et belle histoire. \n\nNot…"
    },
    {
        "text": "RT @lauriannerossi: .@LCI \"Le #RN à perdu près de 700 élus aux dernières municipales et près de 200 élus aux départementales et régionales.…"
    },
    {
        "text": "@Traineur2 Non Alex ils ne vont pas se réveiller, ils croient dur comme fer qu'avec #MLP au pouvoir, ils vont se débarrasser de tous les immigrés, pffffffff des DEBILES"
    },
    {
        "text": "RT @BobLeCentriste: Au #RN, on garde espoir «D’ici la présidentielle, il y aura bien des attentats!» selon Brigitte Gazel, ex-candidate en…"
    },
    {
        "text": "RT @Marinelysee2022: Félicitations à @MLP_officiel, brillament réélue présidente du @RNational_off par les adhérents du #CongrèsRN ! Tous d…"
    },
    {
        "text": "RT @MLP_officiel: 📹 \"Il n'y a pas de meilleur garant de l'intérêt des Français que les Français eux-mêmes ! La souveraineté est aux Nations…"
    },
    {
        "text": "RT @BBR4369: Écoutez @RobertMenardFR sur #Zemmour 🗣️Je lui ai demandé s'il avait envie d'être la Taubira de M. Jospin\n\nCad empêcher #Marine…"
    },
    {
        "text": "RT @MLP_officiel: 📹 \"Nous voulons transmettre une France restaurée dans son unité. Nous voulons transmettre une France dont nous pourrons ê…"
    },
    {
        "text": "RT @JulienOdoul: Unie, la famille nationale est invincible ! Heureux d’avoir partagé ce week-end à #Perpignan avec mes amis élus et militan…"
    },
    {
        "text": "RT @MLP_officiel: 📹 \"Il n’y a ni plan de carrière, ni calcul personnel : je n’ai d’ambition que pour la France. Il n'y a qu'un seul moteur…"
    },
    {
        "text": "RT @JulieApricena: Félicitations à @J_Bardella , pour sa nomination en tant que 1er vice-président du @RNational_off .\nTu sauras être un bo…"
    },
    {
        "text": "RT @JulienOdoul: Unie, la famille nationale est invincible ! Heureux d’avoir partagé ce week-end à #Perpignan avec mes amis élus et militan…"
    },
    {
        "text": "RT @MAndrouet: Week-end d'anniversaire intense au cours duquel @MLP_officiel m'a fait l'immense honneur de me faire entrer au Bureau Nation…"
    },
    {
        "text": "RT @joursansfin: Petit rappel\nConfrontée, à deux reprises au moins, aux idées racistes proférées par ses alliés européens, Marine Le Pen ad…"
    },
    {
        "text": "RT @BreakingInfosTV: 🔴 #Presidentielle2022 :\n\"Mélenchon est le seul qui inquiète le capitalisme et c'est pour ça que tous les médias mainst…"
    },
    {
        "text": "RT @MLP_officiel: 📹 \"Chaque jour, des représentants de l'Etat, policiers, pompiers, professeurs, sont attaqués. Tant de fonctionnaires vont…"
    },
    {
        "text": "RT @MLP_officiel: \"Nous devons installer le débat politique à son niveau, celui d’un choix de société et même de civilisation : voulons-nou…"
    },
    {
        "text": "Unie, la famille nationale est invincible ! Heureux d’avoir partagé ce week-end à #Perpignan avec mes amis élus et militants du @RNational_off de Bourgogne Franche-Comté. A très bientôt sur le terrain pour la campagne de France derrière @MLP_officiel ! 🇫🇷\n\n#congresRN #Marine2022 https://t.co/MK4h7eKXqL"
    },
    {
        "text": "RT @Apostiller1: Marine Le Pen reste la fille de son père. Marion Le Pen la nièce de sa tante et la petite-fille du grand-pere. Jordan Bard…"
    },
    {
        "text": "🔵⚪🔴 Il n'y a que @MLP_officiel qui soit capable de rassembler l'ensemble des français avec un seul objectif : remettre la France en ordre ! \nFace au déclin de notre pays, s'unir pour la France en 2022 est plus que jamais nécessaire ! #RN #congrèsRN #Marine2022 #AvecMarine 🇫🇷 https://t.co/STaekGNmGv"
    },
    {
        "text": "RT @AndreRougeOff: Grâce à l’#OutreMer\n➡️ la 🇫🇷 est une puissance nucléaire\n➡️ la 🇫🇷 est une puissance spatiale\n➡️ la 🇫🇷 est présente sur 3…"
    },
    {
        "text": "RT @AlexandreLoubet: 🔴 Discours de @MLP_officiel avec un seul mot d'ordre : S'UNIR POUR LA FRANCE ! 🇫🇷\n↪ En 2022, tous les partisans de la…"
    },
    {
        "text": "RT @HerveJuvin: Heureux d'avoir pu trouver de nombreux militants des #PaysDeLaLoire lors du #CongresRN à Perpignan ce #WeekEnd \nMobilisons-…"
    },
    {
        "text": "RT @MLP_officiel: 📹 \"Il n'y a pas de meilleur garant de l'intérêt des Français que les Français eux-mêmes ! La souveraineté est aux Nations…"
    },
    {
        "text": "Heureux d'avoir pu trouver de nombreux militants des #PaysDeLaLoire lors du #CongresRN à Perpignan ce #WeekEnd \nMobilisons-nous dans les #PaysDelaLoire et dans toute la France pour une France forte avec @MLP_officiel ! \n#Perpignan https://t.co/8VuS012sSS"
    },
    {
        "text": "RT @BreakingInfosTV: 🔴 #Presidentielle2022 :\n\"Mélenchon est le seul qui inquiète le capitalisme et c'est pour ça que tous les médias mainst…"
    },
    {
        "text": "RT @Manon_Bouquin: MLP : \"L'abandon de la jeune #Mila, notamment par les prétendues féministes institutionnelles, est bien la preuve que la…"
    },
    {
        "text": "RT @MLP_officiel: 📹 \"Nous ne reviendrons pas en arrière. Avec tout le respect que nous avons pour notre propre histoire, nous ne reviendron…"
    },
    {
        "text": "RT @JLechanteux: 😊 Très émue d’être réélue au Conseil national du @RNational_off en 3️⃣2️⃣ème position.\n\nMerci aux nombreux adhérents qui o…"
    },
    {
        "text": "RT @BreakingInfosTV: 🔴 Comme @auroreberge, la ministre @EmmWargon ment sur #Europe1 en affirmant que @JLMelenchon aurait appelé à marcher s…"
    },
    {
        "text": "RT @J_Bardella: Nous revendiquons fièrement d’accorder à la politique ces deux fonctions si essentielles que sont la protection et la trans…"
    },
    {
        "text": "RT @BobLeCentriste: Au #RN, on garde espoir «D’ici la présidentielle, il y aura bien des attentats!» selon Brigitte Gazel, ex-candidate en…"
    },
    {
        "text": "RT @JulienOdoul: Réélue à la tête du premier parti d’opposition. Donnons-lui les rênes en 2022 pour sortir notre France de la spirale du dé…"
    },
    {
        "text": "RT @MLP_officiel: \"Une victoire, surtout contre tout un système coalisé, se bâtit, se construit, se conquiert. \n\nEt cette victoire, je vous…"
    },
    {
        "text": "RT @BreakingInfosTV: Un gymnase rempli sans retransmission à la télé. \n\nIl y a des images qui ne trompent pas pendant que les médias exhibe…"
    },
    {
        "text": "RT @J_Bardella: Nous revendiquons fièrement d’accorder à la politique ces deux fonctions si essentielles que sont la protection et la trans…"
    },
    {
        "text": "RT @MLP_officiel: 📹 \"Nous voulons transmettre une France restaurée dans son unité. Nous voulons transmettre une France dont nous pourrons ê…"
    },
    {
        "text": "RT @lauriannerossi: .@LCI \"Le #RN à perdu près de 700 élus aux dernières municipales et près de 200 élus aux départementales et régionales.…"
    },
    {
        "text": "RT @BobLeCentriste: Au #RN, on garde espoir «D’ici la présidentielle, il y aura bien des attentats!» selon Brigitte Gazel, ex-candidate en…"
    },
    {
        "text": "RT @AlexandreLoubet: 🔴 Discours de @MLP_officiel avec un seul mot d'ordre : S'UNIR POUR LA FRANCE ! 🇫🇷\n↪ En 2022, tous les partisans de la…"
    },
    {
        "text": "RT @MLP_officiel: \"Nous voici rassemblés dans cette belle cité de #Perpignan, ville millénaire d’histoire et de mémoire. Merci aux Perpigna…"
    },
    {
        "text": "RT @CoyLoup: Peut importe l'emballage c'est et sera encore un partis  d'#extremedroite."
    },
    {
        "text": "RT @RNational_off: « Nous croyons en la France, nous croyons dans son génie. Je vous appelle à la fierté de ce que nous sommes et de ce que…"
    },
    {
        "text": "RT @MLP_officiel: \"Parce que nous croyons dans la France et parce que nous croyons dans l’intelligence de ses enfants, nous savons que la F…"
    },
    {
        "text": "RT @MLP_officiel: \"Parce que rien ne va de soi, que tout relève du travail et de l’ardeur, nous avons fait nôtre la formule d’Henri Bergson…"
    },
    {
        "text": "RT @MLP_officiel: 📹 \"Chaque jour, des représentants de l'Etat, policiers, pompiers, professeurs, sont attaqués. Tant de fonctionnaires vont…"
    },
    {
        "text": "RT @MLP_officiel: 📹 \"Il n'y a pas de meilleur garant de l'intérêt des Français que les Français eux-mêmes ! La souveraineté est aux Nations…"
    },
    {
        "text": "RT @RNational_off: « Nous croyons en la France, nous croyons dans son génie. Je vous appelle à la fierté de ce que nous sommes et de ce que…"
    },
    {
        "text": "RT @MLP_officiel: \"Parce que rien ne va de soi, que tout relève du travail et de l’ardeur, nous avons fait nôtre la formule d’Henri Bergson…"
    },
    {
        "text": "RT @MLP_officiel: \"Nous devons installer le débat politique à son niveau, celui d’un choix de société et même de civilisation : voulons-nou…"
    },
    {
        "text": "RT @MLP_officiel: \"Je veux être pour tous nos compatriotes la candidate, puis la Présidente, des solutions concrètes, des solutions positiv…"
    },
    {
        "text": "RT @lauriannerossi: .@LCI \"Le #RN à perdu près de 700 élus aux dernières municipales et près de 200 élus aux départementales et régionales.…"
    },
    {
        "text": "RT @fgrolet: Enfin les retrouvailles pour le XVIIe Congrès du Rassemblement National à Perpignan, nouveau bastion du bon sens ! \n✅ Rassembl…"
    },
    {
        "text": "RT @MLP_officiel: 🔵⚪️🔴 La victoire, nous la devons à nos enfants. Nous la devons à notre patrie, et à sa si grande et belle histoire. \n\nNot…"
    },
    {
        "text": "RT @clement_mci: En sortant du #congresRN, je ne suis motivé que par une seule chose : faire gagner Marine Le Pen, et ce jusqu’à son électi…"
    },
    {
        "text": "RT @NicolasBay_: Je remercie l’ensemble des adhérents du @RNational_off qui me renouvellent leur confiance en me plaçant en 4ème position d…"
    },
    {
        "text": "RT @MLP_officiel: 🇫🇷 Honorée de recevoir la médaille de la ville de #Perpignan des mains du maire @louis_aliot, qui accueille notre #Congrè…"
    },
    {
        "text": "RT @MLP_officiel: Réélue Présidente du Rassemblement National par les adhérents : votre confiance m’honore et m’oblige. #CongrèsRN\n\n 🇫🇷 Uni…"
    },
    {
        "text": "RT @BobLeCentriste: Au #RN, on garde espoir «D’ici la présidentielle, il y aura bien des attentats!» selon Brigitte Gazel, ex-candidate en…"
    }
]