[{
        "text": "RT @MarcGral: « On n’a pas été élu parce que les Français sont cons ! », lance provocante Brigitte Gazel, candidate #RN  malheureuse aux dé…"
    },
    {
        "text": "RT @FrDesouche: C'est marrant de suivre les tweets des cadres #RN présents au #congresRN , ils ne font que se féliciter les uns les autres…"
    },
    {
        "text": "RT @Apostiller1: Marine Le Pen reste la fille de son père. Marion Le Pen la nièce de sa tante et la petite-fille du grand-pere. Jordan Bard…"
    },
    {
        "text": "RT @ThierryMARIANI: 📹« Nous sommes tournés vers l'avenir. Ce qui compte maintenant c'est le combat de la #présidentielle2022 et comment évi…"
    },
    {
        "text": "RT @MLP_officiel: \"Parce que rien ne va de soi, que tout relève du travail et de l’ardeur, nous avons fait nôtre la formule d’Henri Bergson…"
    },
    {
        "text": "RT @JulienOdoul: Très honoré de la confiance et du soutien des adhérents du #RN qui m’ont élu au conseil national en 17ème place. Un immens…"
    },
    {
        "text": "RT @Ludoriann: LE RN n'apprend pas de ses défaites Chenu présenté à Denain la ou MLP faisait des scores coréens s'est prit une raclée mais…"
    },
    {
        "text": "RT @JLechanteux: 😊 Très émue d’être réélue au Conseil national du @RNational_off en 3️⃣2️⃣ème position.\n\nMerci aux nombreux adhérents qui o…"
    },
    {
        "text": "RT @Manon_Bouquin: MLP : \"L'abandon de la jeune #Mila, notamment par les prétendues féministes institutionnelles, est bien la preuve que la…"
    },
    {
        "text": "RT @JulienOdoul: Elle sera là pour vous. Soyez là pour elle ! 🇫🇷\n\n#Marine2022 #congresRN https://t.co/byweP3W5Ja"
    },
    {
        "text": "RT @BLervoire: À deux pas du #CongrèsRN à #Perpignan, les gauchistes font griller des saucisses en hurlant du « No Pasaran »… \nDifficile de…"
    },
    {
        "text": "RT @JulienOdoul: Elle sera là pour vous. Soyez là pour elle ! 🇫🇷\n\n#Marine2022 #congresRN https://t.co/byweP3W5Ja"
    },
    {
        "text": "RT @MLP_officiel: 📹 \"Nous voulons transmettre une France restaurée dans son unité. Nous voulons transmettre une France dont nous pourrons ê…"
    },
    {
        "text": "RT @JPFillet: #congresRN avec Thierry Mariani @CorinneFillet @LilasNdong #Marine2022 https://t.co/mMCYln7rDt"
    },
    {
        "text": "RT @Marinelysee2022: Félicitations à @MLP_officiel, brillament réélue présidente du @RNational_off par les adhérents du #CongrèsRN ! Tous d…"
    },
    {
        "text": "RT @TacherCeline: 🔵 Je remercie chaleureusement tous les adhérents du @RNational_off qui m'ont élu au Conseil National pour les représenter…"
    },
    {
        "text": "RT @NathanHyt06: 🇫🇷 J’étais présent ce week-end au #CongrèsRN du Rassemblement National à Perpignan. \n\nFélicitation à @MLP_officiel réélue…"
    },
    {
        "text": "RT @MLP_officiel: 🔵⚪️🔴 La victoire, nous la devons à nos enfants. Nous la devons à notre patrie, et à sa si grande et belle histoire. \n\nNot…"
    },
    {
        "text": "RT @MLP_officiel: \"Parce que nous croyons dans la France et parce que nous croyons dans l’intelligence de ses enfants, nous savons que la F…"
    },
    {
        "text": "RT @BreakingInfosTV: 🔴 Archives : \"Voter Marine Le Pen c'est aider Macron. Il a besoin d'elle en face pour sa survie électorale\" Adrien Qua…"
    },
    {
        "text": "RT @VRebuffat: Un magnifique week-end pour ce #CongrèsRN, tous unis et rassemblés derrière notre candidate @MLP_officiel, parce que nous av…"
    },
    {
        "text": "RT @MLP_officiel: 📹 \"Chaque jour, des représentants de l'Etat, policiers, pompiers, professeurs, sont attaqués. Tant de fonctionnaires vont…"
    },
    {
        "text": "RT @JulienOdoul: Elle sera là pour vous. Soyez là pour elle ! 🇫🇷\n\n#Marine2022 #congresRN https://t.co/byweP3W5Ja"
    },
    {
        "text": "RT @CatherinePUJOL1: #Perpignan accueille les représentants des Outre-mer lors du XVII ème #congresRN 👌🇫🇷 https://t.co/a7aCHSIwID"
    },
    {
        "text": "RT @WilsonR_GN: Les jeunes de @GN_francilien présents à Perpignan pour le #congresRN dès ce soir ! https://t.co/G84WfHdkiT"
    },
    {
        "text": "RT @TacherCeline: 🔵 Je remercie chaleureusement tous les adhérents du @RNational_off qui m'ont élu au Conseil National pour les représenter…"
    },
    {
        "text": "Bravo à nos alliés du RN pour leur magnifique Congrès qui manifeste la volonté d'amener @MLP_officiel à la présidence de la République 🇨🇵.\n\nFélicitations à @JphTanguy nommé au BN du RN, #MLP continue sa stratégie d'ouverture et d'union de toutes les bonnes volontés. #congresRN 🇨🇵 https://t.co/pX2r8Gn4Ou"
    },
    {
        "text": "RT @MLP_officiel: \"Nous voici rassemblés dans cette belle cité de #Perpignan, ville millénaire d’histoire et de mémoire. Merci aux Perpigna…"
    },
    {
        "text": "RT @RN_Occitanie: 🔴 Les élus du groupe #RN #Occitanie étaient en force au #CongrèsRN à #Perpignan (@JPGarraud était présent par la pensée s…"
    },
    {
        "text": "RT @MarcGral: « On n’a pas été élu parce que les Français sont cons ! », lance provocante Brigitte Gazel, candidate #RN  malheureuse aux dé…"
    },
    {
        "text": "RT @Noesis14: Sur @m6info, \" Un plébiscite pour Marine Le Pen\" \nA aucun moment ils ne précisent qu'elle était la seule candidate #congresRN"
    },
    {
        "text": "RT @RNational_off: « Nous croyons en la France, nous croyons dans son génie. Je vous appelle à la fierté de ce que nous sommes et de ce que…"
    },
    {
        "text": "RT @BreakingInfosTV: On a vu #Hidalgo,#LREM,LR sans oublier le RN de Marine le Pen venir au secours de Bernard Arnault pour une peinture d'…"
    },
    {
        "text": "RT @MLP_officiel: \"Une victoire, surtout contre tout un système coalisé, se bâtit, se construit, se conquiert. \n\nEt cette victoire, je vous…"
    },
    {
        "text": "RT @HeleneLaporteRN: Merci à tous les adhérents qui m’ont fait confiance et m’ont placé à la 26ème place au Conseil National. \n\nAu Parlemen…"
    },
    {
        "text": "RT @BreakingInfosTV: 🔴 #Presidentielle2022 :\n\"Mélenchon est le seul qui inquiète le capitalisme et c'est pour ça que tous les médias mainst…"
    },
    {
        "text": "RT @MLP_officiel: 📹 \"Il n'y a pas de meilleur garant de l'intérêt des Français que les Français eux-mêmes ! La souveraineté est aux Nations…"
    },
    {
        "text": "RT @CathRimbert84: Discours de clôture de XVIIe congrès de @RNational_off : « Nous voulons transmettre une France respectée à l’extérieur e…"
    },
    {
        "text": "RT @MLP_officiel: Réélue Présidente du Rassemblement National par les adhérents : votre confiance m’honore et m’oblige. #CongrèsRN\n\n 🇫🇷 Uni…"
    },
    {
        "text": "RT @MLP_officiel: 📹 \"Chaque jour, des représentants de l'Etat, policiers, pompiers, professeurs, sont attaqués. Tant de fonctionnaires vont…"
    },
    {
        "text": "RT @BreakingInfosTV: On a vu #Hidalgo,#LREM,LR sans oublier le RN de Marine le Pen venir au secours de Bernard Arnault pour une peinture d'…"
    },
    {
        "text": "RT @MLP_officiel: \"Parce que rien ne va de soi, que tout relève du travail et de l’ardeur, nous avons fait nôtre la formule d’Henri Bergson…"
    },
    {
        "text": "RT @MLP_officiel: 📹 \"Nous payons la désagrégation de l'Etat, tatillon avec les contribuables et complaisant face aux criminels. L'Etat doit…"
    },
    {
        "text": "RT @Ludoriann: LE RN n'apprend pas de ses défaites Chenu présenté à Denain la ou MLP faisait des scores coréens s'est prit une raclée mais…"
    },
    {
        "text": "RT @MLP_officiel: 🔵⚪️🔴 La victoire, nous la devons à nos enfants. Nous la devons à notre patrie, et à sa si grande et belle histoire. \n\nNot…"
    },
    {
        "text": "RT @GrisetCatherine: MERCI à tous les adhérents du @RNational_off pour leur confiance ! Extrêmement fière de vous représenter au sein des i…"
    },
    {
        "text": "RT @BreakingInfosTV: On a vu #Hidalgo,#LREM,LR sans oublier le RN de Marine le Pen venir au secours de Bernard Arnault pour une peinture d'…"
    },
    {
        "text": "RT @MLP_officiel: \"Je veux être pour tous nos compatriotes la candidate, puis la Présidente, des solutions concrètes, des solutions positiv…"
    },
    {
        "text": "🇫🇷 J’étais présent ce week-end au #CongrèsRN du Rassemblement National à Perpignan. \n\nFélicitation à @MLP_officiel réélue présidente de notre mouvement ! \n\nJe voulais également féliciter @A_Masson06 élue membre du bureau exécutif ! https://t.co/pqbXVAbjUL"
    },
    {
        "text": "RT @BreakingInfosTV: 🔴 #Presidentielle2022 :\n\"Mélenchon est le seul qui inquiète le capitalisme et c'est pour ça que tous les médias mainst…"
    },
    {
        "text": "RT @RNational_off: « Nous croyons en la France, nous croyons dans son génie. Je vous appelle à la fierté de ce que nous sommes et de ce que…"
    },
    {
        "text": "RT @MLP_officiel: 🔵⚪️🔴 La victoire, nous la devons à nos enfants. Nous la devons à notre patrie, et à sa si grande et belle histoire. \n\nNot…"
    },
    {
        "text": "Mes félicitation à @Olivier_Monteil élu en dix-septième places aux conseil national du Rassemblement National #congresRN #Occitanie #Perpignan https://t.co/uf7lEHmofQ"
    },
    {
        "text": "RT @MLP_officiel: \"Je veux être pour tous nos compatriotes la candidate, puis la Présidente, des solutions concrètes, des solutions positiv…"
    },
    {
        "text": "RT @J_Bardella: Nous revendiquons fièrement d’accorder à la politique ces deux fonctions si essentielles que sont la protection et la trans…"
    },
    {
        "text": "RT @MLP_officiel: \"Nous voici rassemblés dans cette belle cité de #Perpignan, ville millénaire d’histoire et de mémoire. Merci aux Perpigna…"
    },
    {
        "text": "RT @MLP_officiel: 📹 \"Il n’y a ni plan de carrière, ni calcul personnel : je n’ai d’ambition que pour la France. Il n'y a qu'un seul moteur…"
    },
    {
        "text": "RT @clement_mci: En sortant du #congresRN, je ne suis motivé que par une seule chose : faire gagner Marine Le Pen, et ce jusqu’à son électi…"
    },
    {
        "text": "RT @BreakingInfosTV: 🔴 #Presidentielle2022 :\n\"Mélenchon est le seul qui inquiète le capitalisme et c'est pour ça que tous les médias mainst…"
    },
    {
        "text": "RT @CedricMas: «J’ai l’impression qu’on ne va jamais y arriver»... à Perpignan, l’inquiétude des militants\n« Il faut vivre au jour le jour.…"
    },
    {
        "text": "RT @MLP_officiel: \"Parce que rien ne va de soi, que tout relève du travail et de l’ardeur, nous avons fait nôtre la formule d’Henri Bergson…"
    },
    {
        "text": "RT @MLP_officiel: 📹 \"Nous payons la désagrégation de l'Etat, tatillon avec les contribuables et complaisant face aux criminels. L'Etat doit…"
    },
    {
        "text": "RT @BreakingInfosTV: 🔴 #Presidentielle2022 :\n\"Mélenchon est le seul qui inquiète le capitalisme et c'est pour ça que tous les médias mainst…"
    },
    {
        "text": "@HeleneLaporteRN @MLP_officiel Un parti comme ça : ça a vraiment de la gueule ! Bravo à vous 👏 on lâchera rien 👊\n#RNational_off #congresRN #MLP"
    },
    {
        "text": "RT @MLP_officiel: 📹 \"Nous ne reviendrons pas en arrière. Avec tout le respect que nous avons pour notre propre histoire, nous ne reviendron…"
    },
    {
        "text": "RT @GrisetCatherine: « La souveraineté est à la nation ce que la liberté est aux hommes ».\n\nBRAVO @MLP_officiel pour ce grand discours pour…"
    },
    {
        "text": "RT @RN_Occitanie: 🔴 Les élus du groupe #RN #Occitanie étaient en force au #CongrèsRN à #Perpignan (@JPGarraud était présent par la pensée s…"
    },
    {
        "text": "RT @EleonoreBez: Pour une France unie.\n\nPour une France forte. \n\nSeul le @RNational_off porte un projet POUR la France et les Français. Ens…"
    },
    {
        "text": "RT @BobLeCentriste: Au #RN, on garde espoir «D’ici la présidentielle, il y aura bien des attentats!» selon Brigitte Gazel, ex-candidate en…"
    },
    {
        "text": "RT @MLP_officiel: \"Je veux être pour tous nos compatriotes la candidate, puis la Présidente, des solutions concrètes, des solutions positiv…"
    },
    {
        "text": "RT @MLP_officiel: \"Parce que nous croyons dans la France et parce que nous croyons dans l’intelligence de ses enfants, nous savons que la F…"
    },
    {
        "text": "RT @MLP_officiel: Réélue Présidente du Rassemblement National par les adhérents : votre confiance m’honore et m’oblige. #CongrèsRN\n\n 🇫🇷 Uni…"
    },
    {
        "text": "RT @MLP_officiel: 🔵⚪️🔴 La victoire, nous la devons à nos enfants. Nous la devons à notre patrie, et à sa si grande et belle histoire. \n\nNot…"
    },
    {
        "text": "RT @RNational_off: « Nous croyons en la France, nous croyons dans son génie. Je vous appelle à la fierté de ce que nous sommes et de ce que…"
    },
    {
        "text": "RT @MLP_officiel: 🔵⚪️🔴 La victoire, nous la devons à nos enfants. Nous la devons à notre patrie, et à sa si grande et belle histoire. \n\nNot…"
    },
    {
        "text": "RT @MLP_officiel: 📹 \"Nous voulons transmettre une France restaurée dans son unité. Nous voulons transmettre une France dont nous pourrons ê…"
    },
    {
        "text": "RT @MLP_officiel: \"Parce que nous croyons dans la France et parce que nous croyons dans l’intelligence de ses enfants, nous savons que la F…"
    },
    {
        "text": "RT @BreakingInfosTV: 🔴 Archives : \"Voter Marine Le Pen c'est aider Macron. Il a besoin d'elle en face pour sa survie électorale\" Adrien Qua…"
    },
    {
        "text": "RT @MLP_officiel: 📹 \"Chaque jour, des représentants de l'Etat, policiers, pompiers, professeurs, sont attaqués. Tant de fonctionnaires vont…"
    },
    {
        "text": "RT @MLP_officiel: \"Parce que nous croyons dans la France et parce que nous croyons dans l’intelligence de ses enfants, nous savons que la F…"
    },
    {
        "text": "RT @MLP_officiel: \"Une victoire, surtout contre tout un système coalisé, se bâtit, se construit, se conquiert. \n\nEt cette victoire, je vous…"
    },
    {
        "text": "RT @MLP_officiel: \"Parce que rien ne va de soi, que tout relève du travail et de l’ardeur, nous avons fait nôtre la formule d’Henri Bergson…"
    },
    {
        "text": "RT @J_Bardella: Le récent silence des urnes est trompeur. Il n’est que le calme avant la tempête, l’eau qui se retire avant le déchaînement…"
    },
    {
        "text": "RT @MLP_officiel: 📹 \"Il n’y a ni plan de carrière, ni calcul personnel : je n’ai d’ambition que pour la France. Il n'y a qu'un seul moteur…"
    },
    {
        "text": "RT @J_Bardella: Ici à Perpignan, dans cette belle et rayonnante terre de victoire, nous avons prouvé il y a un an, jour pour jour, qu’aucun…"
    },
    {
        "text": "RT @MLP_officiel: 📹 \"Il n'y a pas de meilleur garant de l'intérêt des Français que les Français eux-mêmes ! La souveraineté est aux Nations…"
    },
    {
        "text": "RT @MLP_officiel: 🔵⚪️🔴 La victoire, nous la devons à nos enfants. Nous la devons à notre patrie, et à sa si grande et belle histoire. \n\nNot…"
    },
    {
        "text": "RT @AlexandreLoubet: ☕ Petit-déjeuner de @MLP_officiel avec la presse ce matin ! \nDepuis les toits du Palais des Congrès, superbe panorama…"
    },
    {
        "text": "RT @ThierryMARIANI: 📹« Nous sommes tournés vers l'avenir. Ce qui compte maintenant c'est le combat de la #présidentielle2022 et comment évi…"
    },
    {
        "text": "RT @BreakingInfosTV: 🔴 #Presidentielle2022 :\n\"Mélenchon est le seul qui inquiète le capitalisme et c'est pour ça que tous les médias mainst…"
    },
    {
        "text": "RT @TacherCeline: 🔵 Je remercie chaleureusement tous les adhérents du @RNational_off qui m'ont élu au Conseil National pour les représenter…"
    },
    {
        "text": "RT @WilsonR_GN: Les jeunes de @GN_francilien présents à Perpignan pour le #congresRN dès ce soir ! https://t.co/G84WfHdkiT"
    },
    {
        "text": "RT @MLP_officiel: 📹 \"Nous voulons transmettre une France restaurée dans son unité. Nous voulons transmettre une France dont nous pourrons ê…"
    },
    {
        "text": "RT @MLP_officiel: \"Nous voici rassemblés dans cette belle cité de #Perpignan, ville millénaire d’histoire et de mémoire. Merci aux Perpigna…"
    },
    {
        "text": "RT @RN_Occitanie: 🔴 Les élus du groupe #RN #Occitanie étaient en force au #CongrèsRN à #Perpignan (@JPGarraud était présent par la pensée s…"
    },
    {
        "text": "RT @JulienOdoul: Elle sera là pour vous. Soyez là pour elle ! 🇫🇷\n\n#Marine2022 #congresRN https://t.co/byweP3W5Ja"
    },
    {
        "text": "RT @MLP_officiel: \"Nous devons installer le débat politique à son niveau, celui d’un choix de société et même de civilisation : voulons-nou…"
    },
    {
        "text": "RT @MLP_officiel: 📹 \"Nous payons la désagrégation de l'Etat, tatillon avec les contribuables et complaisant face aux criminels. L'Etat doit…"
    },
    {
        "text": "Marine Le Pen toujours donnée gagnante du 1er tour des présidentielles en 2022. Face à la politique des magouilles, l'année prochaine la France aura une présidente ! Comme à Perpignan, Beaucaire, Hénin-Beaumon ou encore Fréjus, essayer le RN c'est l'adopter ! #congresRN"
    },
    {
        "text": "RT @MarcGral: « On n’a pas été élu parce que les Français sont cons ! », lance provocante Brigitte Gazel, candidate #RN  malheureuse aux dé…"
    }
]